{
    "data": {
        "list": [
            {
                "account": 2000,
                "accountYes": 1000,
                "addIp": "101.69.240.115",
                "addTime": 1407235143000,
                "amount": 0,
                "apr": 16,
                "aprSearch": 0,
                "award": 0,
                "borrowId": 0,
                "borrowNameHide": "流转标还款金***",
                "borrowTimeType": 1,
                "borrowUse": "1",
                "content": "",
                "creditSearch": 0,
                "flowCount": 0,
                "flowMoney": 1000,
                "flowYesCount": 0,
                "funds": 0,
                "id": 2135,
                "isDXB": 0,
                "lowestAccount": 0,
                "lowestSingleLimit": 0,
                "money": 0,
                "moneySearch": 0,
                "mostAccount": 0,
                "mostSingleLimit": 0,
                "name": "流转标还款金额验证2000",
                "oldAccount": 0,
                "order": 0,
                "page": 1,
                "partAccount": 0,
                "period": 0,
                "recommend": false,
                "repaymentAccount": 0,
                "repaymentId": 0,
                "repaymentYesAccount": 0,
                "repaymentYesInterest": 0,
                "scales": 50,
                "size": 10,
                "startTime": "1407235347",
                "status": 1,
                "style": 2,
                "tenderTimes": 1,
                "time": 0,
                "timeLimit": 1,
                "timeSearch": 0,
                "type": 110,
                "userId": 16394,
                "userName": "hehe02",
                "validTime": 1
            },
            {
                "account": 1600,
                "accountYes": 800,
                "addIp": "101.69.240.115",
                "addTime": 1407224653000,
                "amount": 0,
                "apr": 16,
                "aprSearch": 0,
                "award": 0,
                "borrowId": 0,
                "borrowNameHide": "",
                "borrowTimeType": 0,
                "borrowUse": "1",
                "content": "",
                "creditSearch": 0,
                "flowCount": 0,
                "flowMoney": 800,
                "flowYesCount": 0,
                "funds": 0,
                "id": 2129,
                "isDXB": 0,
                "lowestAccount": 0,
                "lowestSingleLimit": 0,
                "money": 0,
                "moneySearch": 0,
                "mostAccount": 0,
                "mostSingleLimit": 0,
                "name": "1600",
                "oldAccount": 0,
                "order": 0,
                "page": 1,
                "partAccount": 3,
                "period": 0,
                "recommend": false,
                "repaymentAccount": 0,
                "repaymentId": 0,
                "repaymentYesAccount": 0,
                "repaymentYesInterest": 0,
                "scales": 50,
                "size": 10,
                "startTime": "1407224672",
                "status": 1,
                "style": 1,
                "tenderTimes": 1,
                "time": 0,
                "timeLimit": 1,
                "timeSearch": 0,
                "type": 110,
                "userId": 16394,
                "userName": "hehe02",
                "validTime": 1
            },
            {
                "account": 1400,
                "accountYes": 0,
                "addIp": "101.69.240.115",
                "addTime": 1407223581000,
                "amount": 0,
                "apr": 14,
                "aprSearch": 0,
                "award": 0,
                "borrowId": 0,
                "borrowNameHide": "",
                "borrowTimeType": 0,
                "borrowUse": "1",
                "content": "",
                "creditSearch": 0,
                "flowCount": 0,
                "flowMoney": 0,
                "flowYesCount": 0,
                "funds": 0,
                "id": 2127,
                "isDXB": 0,
                "lowestAccount": 50,
                "lowestSingleLimit": 0,
                "money": 0,
                "moneySearch": 0,
                "mostAccount": 0,
                "mostSingleLimit": 0,
                "name": "1400。。。",
                "oldAccount": 0,
                "order": 0,
                "page": 1,
                "partAccount": 2,
                "period": 0,
                "recommend": false,
                "repaymentAccount": 1416.33,
                "repaymentId": 0,
                "repaymentYesAccount": 0,
                "repaymentYesInterest": 0,
                "scales": 0,
                "size": 10,
                "startTime": "1407223598",
                "status": 1,
                "style": 2,
                "tenderTimes": 0,
                "time": 0,
                "timeLimit": 1,
                "timeSearch": 0,
                "type": 101,
                "userId": 16394,
                "userName": "hehe02",
                "validTime": 1
            },
            {
                "account": 1000,
                "accountYes": 0,
                "addIp": "127.0.0.1",
                "addTime": 1405677075000,
                "amount": 0,
                "apr": 12,
                "aprSearch": 0,
                "award": 0,
                "borrowId": 0,
                "borrowNameHide": "asdfas***",
                "borrowTimeType": 0,
                "borrowUse": "1",
                "content": "<p>asdfasdf</p>",
                "creditSearch": 0,
                "flowCount": 0,
                "flowMoney": 0,
                "flowYesCount": 0,
                "funds": 0,
                "id": 2073,
                "isDXB": 0,
                "lowestAccount": 50,
                "lowestSingleLimit": 0,
                "money": 0,
                "moneySearch": 0,
                "mostAccount": 0,
                "mostSingleLimit": 0,
                "name": "asdfasdf",
                "oldAccount": 0,
                "order": 0,
                "page": 1,
                "partAccount": 0,
                "period": 0,
                "recommend": false,
                "repaymentAccount": 1010,
                "repaymentId": 0,
                "repaymentYesAccount": 0,
                "repaymentYesInterest": 0,
                "scales": 0,
                "size": 10,
                "startTime": "1405677105",
                "status": 1,
                "style": 1,
                "tenderTimes": 0,
                "time": 0,
                "timeLimit": 1,
                "timeSearch": 0,
                "type": 103,
                "userId": 16320,
                "userName": "test3",
                "validTime": 1
            }
        ],
        "page": {
            "currentPage": 1,
            "end": 10,
            "pages": 5,
            "pernum": 10,
            "start": 0,
            "total": 50
        },
        "type": 0
    }
}